module CbIPOKGIT/xorm-models

go 1.18

require (
	github.com/go-sql-driver/mysql v1.6.0 // indirect
	github.com/go-xorm/xorm v0.7.9 // indirect
	xorm.io/builder v0.3.6 // indirect
	xorm.io/core v0.7.2-0.20190928055935-90aeac8d08eb // indirect
)
